{
  "project_info": {
    "project_number": "310711101897",
    "project_id": "fir-chat-315d1",
    "storage_bucket": "fir-chat-315d1.appspot.com"
  },
  "client": [
    {
      "client_info": {
        "mobilesdk_app_id": "1:310711101897:android:cc4ab7ad25858bcae6e018",
        "android_client_info": {
          "package_name": "com.example.firebasechat"
        }
      },
      "oauth_client": [
        {
          "client_id": "310711101897-6rmj8kbgl458f0emvdbem0lo9a86p5ge.apps.googleusercontent.com",
          "client_type": 3
        }
      ],
      "api_key": [
        {
          "current_key": "AIzaSyBCol2BtvtRkv520bJ32TSIL1MqWVTeDeo"
        }
      ],
      "services": {
        "appinvite_service": {
          "other_platform_oauth_client": [
            {
              "client_id": "310711101897-6rmj8kbgl458f0emvdbem0lo9a86p5ge.apps.googleusercontent.com",
              "client_type": 3
            }
          ]
        }
      }
    }
  ],
  "configuration_version": "1"
}